{
	"products" : [
		{
			"id"	 	: "0",
			"name"	 	: "Língua do Portuga",
			"quantity"	: "1"
		},
		{
			"id"	 	: "1",
			"name"	 	: "Mãozinha do Felipe",
			"quantity"	: "2"
		},
		{
			"id"	 	: "2",
			"name"	 	: "Verruga do Novinho",
			"quantity"	: "1"
		},
		{
			"id"	 	: "3",
			"name"	 	: "Pereba do Xandyn",
			"quantity"	: "1"
		},
		{
			"id"	 	: "4",
			"name"	 	: "Estomago do Thiago",
			"quantity"	: "1"
		}
	]
}